68.838s hicky joined hicky
79.9024s Mariane joined Mariane
79.9024s hicky startgame 1
79.9024s hicky startturn 1
87.2349s hicky dice hicky 4 4 6 5 5
87.2349s Mariane startturn 1
93.3681s Mariane dice Mariane 4 4 6 5 1
93.3682s hicky startturn 2 1
93.3682s hicky startturn 2 1
115.367s hicky betplaced hicky 1 2
115.367s Mariane startturn 2 1
120.566s Mariane betplaced Mariane 1 2
120.566s hicky startturn 3 1
120.566s hicky startturn 3 1
120.833s hicky betplaced hicky 1 2
120.833s Mariane startturn 3 1
121.1s Mariane betplaced Mariane 1 2
121.1s hicky startturn 4
121.1s hicky startturn 4
183.495s hicky dice hicky 6 5 2 2 5
183.495s Mariane startturn 4
197.594s Mariane dice Mariane 1 4 4 5 6
197.594s hicky endgame hicky 2
219.343s Mariane startgame 1
219.343s Mariane startturn 1
219.343s Mariane startturn 1
226.393s Mariane dice Mariane 3 4 1 2 6
226.393s hicky startturn 1
236.142s hicky dice hicky 5 5 2 6 5
236.142s Mariane startturn 2 1
236.142s Mariane startturn 2 1
282.039s Mariane betplaced Mariane 2 3
282.039s hicky startturn 2 2
289.988s hicky betplaced hicky 2 4
289.988s Mariane startturn 3 2
289.988s Mariane startturn 3 2
290.138s Mariane betplaced Mariane 2 4
290.138s hicky startturn 3 2
290.288s hicky betplaced hicky 2 4
290.288s Mariane startturn 4
290.288s Mariane startturn 4
314.136s Mariane dice Mariane 1 2 3 4 3
314.136s hicky startturn 4
363.183s hicky dice hicky 2 5 5 5 6
363.183s Mariane endgame hicky 4
384.032s hicky quit hicky
384.482s Mariane quit Mariane
